(footprint "SOP-28_longpads" (version 20221018) (generator pcbnew)
  (layer "F.Cu")
  (attr smd)
  (fp_text reference "REF**" (at -10.105 0 90) (layer "F.SilkS")
      (effects (font (size 1 1) (thickness 0.15)))
    (tstamp f159aec0-884b-4c60-93cf-522a5c2b1a8d)
  )
  (fp_text value "SOP-28_longpads" (at 0 0) (layer "F.Fab")
      (effects (font (size 1 1) (thickness 0.15)))
    (tstamp 2f8dffd6-355d-4767-9f6e-f6da63e4555f)
  )
  (fp_line (start -9.105 -6.4) (end 9.105 -6.4)
    (stroke (width 0.12) (type default)) (layer "F.SilkS") (tstamp 2dba4a51-785c-493e-8322-3c48d1f74e82))
  (fp_line (start -9.105 5.6) (end -9.105 -6.4)
    (stroke (width 0.12) (type default)) (layer "F.SilkS") (tstamp be57d53d-b5b7-4b14-a98a-e07ed53aeae2))
  (fp_line (start -8.305 6.4) (end -9.105 5.6)
    (stroke (width 0.12) (type default)) (layer "F.SilkS") (tstamp 68d67720-bc5a-4e2c-b9c3-87bf0310cbb2))
  (fp_line (start 9.105 -6.4) (end 9.105 6.4)
    (stroke (width 0.12) (type default)) (layer "F.SilkS") (tstamp 7f741ee8-7d3d-4464-854a-eb4ffdd32cae))
  (fp_line (start 9.105 6.4) (end -8.305 6.4)
    (stroke (width 0.12) (type default)) (layer "F.SilkS") (tstamp 2fd68431-1efe-4042-a51b-27f956b2c510))
  (fp_line (start -8.86 -6.15) (end 8.86 -6.15)
    (stroke (width 0.05) (type default)) (layer "F.CrtYd") (tstamp b48e5c28-88ab-4dcb-94a8-d1aa0bf51d26))
  (fp_line (start -8.86 6.15) (end -8.86 -6.15)
    (stroke (width 0.05) (type default)) (layer "F.CrtYd") (tstamp 188640b0-4352-45de-a258-c9b3425f7cb1))
  (fp_line (start 8.86 -6.15) (end 8.86 6.15)
    (stroke (width 0.05) (type default)) (layer "F.CrtYd") (tstamp 1e2c76c1-4501-43d2-bcf4-67956e33592f))
  (fp_line (start 8.86 6.15) (end -8.86 6.15)
    (stroke (width 0.05) (type default)) (layer "F.CrtYd") (tstamp ff494cf1-56f5-4bf3-9588-2f13cc863dd5))
  (pad "1" smd rect (at -8.255 4.8) (size 0.7 2.2) (layers "F.Cu" "F.Paste" "F.Mask")
    (thermal_bridge_angle 45) (tstamp dad4c186-0e70-45c0-940d-071de01860e7))
  (pad "2" smd rect (at -6.985 4.8) (size 0.7 2.2) (layers "F.Cu" "F.Paste" "F.Mask")
    (thermal_bridge_angle 45) (tstamp 53a975a5-0c42-402a-a7f1-de258d24a12d))
  (pad "3" smd rect (at -5.715 4.8) (size 0.7 2.2) (layers "F.Cu" "F.Paste" "F.Mask")
    (thermal_bridge_angle 45) (tstamp a6a6c3c8-ac79-4519-a3f2-c0e966b0aba3))
  (pad "4" smd rect (at -4.445 4.8) (size 0.7 2.2) (layers "F.Cu" "F.Paste" "F.Mask")
    (thermal_bridge_angle 45) (tstamp d2a88764-3194-4c33-b534-c1f4d8178741))
  (pad "5" smd rect (at -3.175 4.8) (size 0.7 2.2) (layers "F.Cu" "F.Paste" "F.Mask")
    (thermal_bridge_angle 45) (tstamp 5a378975-da7d-4b12-b3fb-5cab8470f94c))
  (pad "6" smd rect (at -1.905 4.8) (size 0.7 2.2) (layers "F.Cu" "F.Paste" "F.Mask")
    (thermal_bridge_angle 45) (tstamp 47b1c203-1c64-4607-9b53-2cdc1b9baeb0))
  (pad "7" smd rect (at -0.635 4.8) (size 0.7 2.2) (layers "F.Cu" "F.Paste" "F.Mask")
    (thermal_bridge_angle 45) (tstamp e2a43593-b9a9-4b21-a5b5-0296bc677c4d))
  (pad "8" smd rect (at 0.635 4.8) (size 0.7 2.2) (layers "F.Cu" "F.Paste" "F.Mask")
    (thermal_bridge_angle 45) (tstamp f387cd5d-c4fb-4333-98cc-3dafc52e008b))
  (pad "9" smd rect (at 1.905 4.8) (size 0.7 2.2) (layers "F.Cu" "F.Paste" "F.Mask")
    (thermal_bridge_angle 45) (tstamp e1977578-027b-4df6-965e-fc8ca9e7e62a))
  (pad "10" smd rect (at 3.175 4.8) (size 0.7 2.2) (layers "F.Cu" "F.Paste" "F.Mask")
    (thermal_bridge_angle 45) (tstamp ee2eeaf0-f01e-4be7-9a22-3dc23541277a))
  (pad "11" smd rect (at 4.445 4.8) (size 0.7 2.2) (layers "F.Cu" "F.Paste" "F.Mask")
    (thermal_bridge_angle 45) (tstamp 1c9d3717-fad8-495e-b7f7-5ec399ee581c))
  (pad "12" smd rect (at 5.715 4.8) (size 0.7 2.2) (layers "F.Cu" "F.Paste" "F.Mask")
    (thermal_bridge_angle 45) (tstamp 0dece8b6-de9b-43db-9f80-0ea07d5a5302))
  (pad "13" smd rect (at 6.985 4.8) (size 0.7 2.2) (layers "F.Cu" "F.Paste" "F.Mask")
    (thermal_bridge_angle 45) (tstamp 7ece99a7-d316-4e10-a928-2791b782f91d))
  (pad "14" smd rect (at 8.255 4.8) (size 0.7 2.2) (layers "F.Cu" "F.Paste" "F.Mask")
    (thermal_bridge_angle 45) (tstamp 60654c61-37b5-4ab4-b870-7ed1bad7e106))
  (pad "15" smd rect (at 8.255 -4.8) (size 0.7 2.2) (layers "F.Cu" "F.Paste" "F.Mask")
    (thermal_bridge_angle 45) (tstamp aac9a7b0-5cac-4441-b223-df941c6387eb))
  (pad "16" smd rect (at 6.985 -4.8) (size 0.7 2.2) (layers "F.Cu" "F.Paste" "F.Mask")
    (thermal_bridge_angle 45) (tstamp c6270739-94f1-4136-ab25-076498548b00))
  (pad "17" smd rect (at 5.715 -4.8) (size 0.7 2.2) (layers "F.Cu" "F.Paste" "F.Mask")
    (thermal_bridge_angle 45) (tstamp 9010d5d1-6c7d-45be-83e2-3786e1e0cd3c))
  (pad "18" smd rect (at 4.445 -4.8) (size 0.7 2.2) (layers "F.Cu" "F.Paste" "F.Mask")
    (thermal_bridge_angle 45) (tstamp 9c1c6430-2509-45cb-b3af-598286300cbd))
  (pad "19" smd rect (at 3.175 -4.8) (size 0.7 2.2) (layers "F.Cu" "F.Paste" "F.Mask")
    (thermal_bridge_angle 45) (tstamp a0821682-2d30-4679-9278-25690a5e7c94))
  (pad "20" smd rect (at 1.905 -4.8) (size 0.7 2.2) (layers "F.Cu" "F.Paste" "F.Mask")
    (thermal_bridge_angle 45) (tstamp 9e99b31f-90f7-4fc6-911e-da12ab1ddd29))
  (pad "21" smd rect (at 0.635 -4.8) (size 0.7 2.2) (layers "F.Cu" "F.Paste" "F.Mask")
    (thermal_bridge_angle 45) (tstamp 0765c168-cd67-4776-9002-35f4e5516e39))
  (pad "22" smd rect (at -0.635 -4.8) (size 0.7 2.2) (layers "F.Cu" "F.Paste" "F.Mask")
    (thermal_bridge_angle 45) (tstamp 802193b5-4f64-472c-8c85-4351ba0ca65e))
  (pad "23" smd rect (at -1.905 -4.8) (size 0.7 2.2) (layers "F.Cu" "F.Paste" "F.Mask")
    (thermal_bridge_angle 45) (tstamp 8dcf1de6-b9d0-4bdc-a955-2fe2f989c463))
  (pad "24" smd rect (at -3.175 -4.8) (size 0.7 2.2) (layers "F.Cu" "F.Paste" "F.Mask")
    (thermal_bridge_angle 45) (tstamp 1ec850cb-bfb7-45fb-a756-bd8ae4ae00b8))
  (pad "25" smd rect (at -4.445 -4.8) (size 0.7 2.2) (layers "F.Cu" "F.Paste" "F.Mask")
    (thermal_bridge_angle 45) (tstamp 634f1754-b8ae-4e8b-93ff-991fb4d51ce9))
  (pad "26" smd rect (at -5.715 -4.8) (size 0.7 2.2) (layers "F.Cu" "F.Paste" "F.Mask")
    (thermal_bridge_angle 45) (tstamp 730931d9-bffc-43a4-9a28-5c4a64aa3a4b))
  (pad "27" smd rect (at -6.985 -4.8) (size 0.7 2.2) (layers "F.Cu" "F.Paste" "F.Mask")
    (thermal_bridge_angle 45) (tstamp 28140b2e-d76d-47dc-8e77-9a089b58450c))
  (pad "28" smd rect (at -8.255 -4.8) (size 0.7 2.2) (layers "F.Cu" "F.Paste" "F.Mask")
    (thermal_bridge_angle 45) (tstamp 9e1f832f-684c-4a92-9620-f3b36742ccc1))
)
