(footprint "LCD" (version 20221018) (generator pcbnew)
  (layer "F.Cu")
  (attr through_hole)
  (fp_text reference "REF**" (at 18.25 24.75 unlocked) (layer "F.SilkS")
      (effects (font (size 1 1) (thickness 0.1)))
    (tstamp 82e3f1a5-503e-4674-9e98-ee9ab31c0777)
  )
  (fp_text value "DENSITRON LR4422BG-SNY" (at 37.85 24.85 unlocked) (layer "F.Fab")
      (effects (font (size 1 1) (thickness 0.15)))
    (tstamp d5240bb2-92d3-4ef5-a4d0-1d820453d3c2)
  )
  (fp_text user "16x2 characters" (at 21.45 17 unlocked) (layer "F.SilkS")
      (effects (font (size 5.5 3.55) (thickness 0.5)) (justify left bottom))
    (tstamp 588604b2-4865-46e1-9443-9a47702c8d36)
  )
  (fp_text user "${REFERENCE}" (at 46.5 19.25 unlocked) (layer "F.Fab")
      (effects (font (size 1 1) (thickness 0.15)))
    (tstamp 4224f781-3c64-476a-8fcd-4fadf3f29cb3)
  )
  (fp_rect (start 0 0) (end 85 36)
    (stroke (width 0.1) (type default)) (fill none) (layer "F.SilkS") (tstamp e69ca2d8-4a4a-4aeb-a1f2-119777b2b397))
  (fp_rect (start 9.25 2.5) (end 80.75 33.5)
    (stroke (width 0.1) (type default)) (fill none) (layer "F.SilkS") (tstamp 123ea603-0652-48f6-918a-dab0168a2f52))
  (fp_rect (start 15 10.1) (end 75 25.9)
    (stroke (width 0.1) (type default)) (fill none) (layer "F.SilkS") (tstamp 873534e1-f200-400d-adbb-9159267fb2c9))
  (fp_rect (start -1 -1) (end 86 37)
    (stroke (width 0.05) (type default)) (fill none) (layer "F.CrtYd") (tstamp 7d131da6-bdab-489b-9d2e-f4d0ddc12266))
  (pad "1" thru_hole rect (at 5.04 25.62) (size 1.6 1.6) (drill 1) (layers "*.Cu" "*.Mask") (tstamp adae1aa2-9409-422d-b6fa-9ea0f474b5dc))
  (pad "2" thru_hole circle (at 2.5 25.62) (size 1.6 1.6) (drill 1) (layers "*.Cu" "*.Mask") (tstamp ecb9a8b6-5844-41ba-8790-f8b3f99dbe4f))
  (pad "3" thru_hole circle (at 5.04 23.08) (size 1.6 1.6) (drill 1) (layers "*.Cu" "*.Mask") (tstamp 2598126f-21d1-4bf2-b3d7-f222c5f3158b))
  (pad "4" thru_hole circle (at 2.5 23.08) (size 1.6 1.6) (drill 1) (layers "*.Cu" "*.Mask") (tstamp fb937ccb-a7f7-4ba1-83b3-62ae479dd82e))
  (pad "5" thru_hole circle (at 5.04 20.54) (size 1.6 1.6) (drill 1) (layers "*.Cu" "*.Mask") (tstamp ea71ea29-0f90-4214-88ed-b9a85bc9ca33))
  (pad "6" thru_hole circle (at 2.5 20.54) (size 1.6 1.6) (drill 1) (layers "*.Cu" "*.Mask") (tstamp e5894a4c-6b53-466f-9d5d-5b4a85b72fef))
  (pad "7" thru_hole circle (at 5.04 18) (size 1.6 1.6) (drill 1) (layers "*.Cu" "*.Mask") (tstamp 103cd6d5-b812-4617-aef2-500393dceca7))
  (pad "8" thru_hole circle (at 2.5 18) (size 1.6 1.6) (drill 1) (layers "*.Cu" "*.Mask") (tstamp 95716f41-9cca-42b2-8b7d-348ba5b5f256))
  (pad "9" thru_hole circle (at 5.04 15.46) (size 1.6 1.6) (drill 1) (layers "*.Cu" "*.Mask") (tstamp 5d34e9f0-6837-4908-ac40-07e6be111262))
  (pad "10" thru_hole circle (at 2.5 15.46) (size 1.6 1.6) (drill 1) (layers "*.Cu" "*.Mask") (tstamp a2ac9817-e076-4e98-88e2-0dfb86b02b0a))
  (pad "11" thru_hole circle (at 5.04 12.92) (size 1.6 1.6) (drill 1) (layers "*.Cu" "*.Mask") (tstamp a5a65e15-2d94-4d76-bdff-2579010bd4d3))
  (pad "12" thru_hole circle (at 2.5 12.92) (size 1.6 1.6) (drill 1) (layers "*.Cu" "*.Mask") (tstamp 8ad0663e-f35e-4aab-b79f-f10815749572))
  (pad "13" thru_hole circle (at 5.04 10.38) (size 1.6 1.6) (drill 1) (layers "*.Cu" "*.Mask") (tstamp c6e221ac-f43c-41e5-a1f0-63ee0ec084b0))
  (pad "14" thru_hole circle (at 2.5 10.38) (size 1.6 1.6) (drill 1) (layers "*.Cu" "*.Mask") (tstamp 9179dc84-ceea-414d-9952-28204901f98f))
  (pad "15" thru_hole circle (at 5.04 7.84) (size 1.6 1.6) (drill 1) (layers "*.Cu" "*.Mask") (tstamp 7276cf80-feb9-4146-9d56-57bbae70ea97))
  (pad "16" thru_hole circle (at 2.5 7.84) (size 1.6 1.6) (drill 1) (layers "*.Cu" "*.Mask") (tstamp bb883c34-690e-4749-9869-c16e2873effe))
  (pad "17" thru_hole rect (at 83.5 23.08) (size 1.6 1.6) (drill 1) (layers "*.Cu" "*.Mask") (tstamp fcbeb0bf-dbfc-43d2-89f7-386825b76eb0))
  (pad "18" thru_hole rect (at 83.5 20.54) (size 1.6 1.6) (drill 1) (layers "*.Cu" "*.Mask") (tstamp 5e629a5a-af48-4fca-b842-0955974de350))
  (pad "19" thru_hole rect (at 83.5 18) (size 1.6 1.6) (drill 1) (layers "*.Cu" "*.Mask") (tstamp 95a181f7-8aad-4b41-968c-b11c8d89e737))
  (pad "20" thru_hole rect (at 83.5 15.46) (size 1.6 1.6) (drill 1) (layers "*.Cu" "*.Mask") (tstamp c0753065-8f8c-4842-9b8f-6e51edc7e9ca))
  (pad "21" thru_hole rect (at 83.5 12.92) (size 1.6 1.6) (drill 1) (layers "*.Cu" "*.Mask") (tstamp d374be9d-1793-4191-9429-7fc2feb42611))
  (pad "MT" thru_hole circle (at 2.5 2.5) (size 4.5 4.5) (drill 2.7) (layers "*.Cu" "*.Mask") (tstamp b56f09c4-359d-438a-b764-a514808a53f4))
  (pad "MT" thru_hole circle (at 2.5 33.5) (size 4.5 4.5) (drill 2.7) (layers "*.Cu" "*.Mask") (tstamp f76495b6-475b-4f57-b8a1-7a0917b1c14b))
  (pad "MT" thru_hole circle (at 82.5 2.5) (size 4.5 4.5) (drill 2.7) (layers "*.Cu" "*.Mask") (tstamp adbd3442-29ac-46e8-acf0-8011814e659e))
  (pad "MT" thru_hole circle (at 82.5 33.5) (size 4.5 4.5) (drill 2.7) (layers "*.Cu" "*.Mask") (tstamp f5595636-8105-47d8-8f95-13d21f131076))
  (group "" (id a57b3547-85e3-41b6-9ff8-1492de77c56e)
    (members
      103cd6d5-b812-4617-aef2-500393dceca7
      2598126f-21d1-4bf2-b3d7-f222c5f3158b
      5d34e9f0-6837-4908-ac40-07e6be111262
      7276cf80-feb9-4146-9d56-57bbae70ea97
      8ad0663e-f35e-4aab-b79f-f10815749572
      9179dc84-ceea-414d-9952-28204901f98f
      95716f41-9cca-42b2-8b7d-348ba5b5f256
      a2ac9817-e076-4e98-88e2-0dfb86b02b0a
      a5a65e15-2d94-4d76-bdff-2579010bd4d3
      adae1aa2-9409-422d-b6fa-9ea0f474b5dc
      bb883c34-690e-4749-9869-c16e2873effe
      c6e221ac-f43c-41e5-a1f0-63ee0ec084b0
      e5894a4c-6b53-466f-9d5d-5b4a85b72fef
      ea71ea29-0f90-4214-88ed-b9a85bc9ca33
      ecb9a8b6-5844-41ba-8790-f8b3f99dbe4f
      fb937ccb-a7f7-4ba1-83b3-62ae479dd82e
    )
  )
  (group "" (id d14350a7-39ae-4a87-a32e-fe9671e5d6d7)
    (members
      5e629a5a-af48-4fca-b842-0955974de350
      95a181f7-8aad-4b41-968c-b11c8d89e737
      c0753065-8f8c-4842-9b8f-6e51edc7e9ca
      d374be9d-1793-4191-9429-7fc2feb42611
      fcbeb0bf-dbfc-43d2-89f7-386825b76eb0
    )
  )
)
