(footprint "Switch_Tactile_6mm_Right" (version 20221018) (generator pcbnew)
  (layer "F.Cu")
  (descr "Switch, Tactile, 6mm, Right Angle")
  (tags "SWITCH TACTILE 6MM RIGHT")
  (property "Sheetfile" "80c51_main.kicad_sch")
  (property "Sheetname" "")
  (attr through_hole)
  (fp_text reference "SW1" (at -3.175 8.89) (layer "F.SilkS")
      (effects (font (size 1.016 1.016) (thickness 0.2032)))
    (tstamp eb5b1dde-004d-40b8-b181-60b471a43cc6)
  )
  (fp_text value "RESET" (at 2.54 8.89) (layer "F.SilkS")
      (effects (font (size 1.016 0.9144) (thickness 0.2032) italic))
    (tstamp d68f25cb-b454-494e-b9a1-001f7987b340)
  )
  (fp_line (start -3.50012 1.50114) (end -3.50012 7.74954)
    (stroke (width 0.254) (type solid)) (layer "F.SilkS") (tstamp b149a498-f6fb-44b2-9a0f-8bd39d8cda8c))
  (fp_line (start -3.50012 4.0005) (end 3.50012 4.0005)
    (stroke (width 0.254) (type solid)) (layer "F.SilkS") (tstamp bde37afe-0681-4968-bce4-ac2a64f6dd6c))
  (fp_line (start -2.75082 1.50114) (end -3.50012 1.50114)
    (stroke (width 0.254) (type solid)) (layer "F.SilkS") (tstamp f9ba5b30-8ab7-4873-8ace-447cbf87d828))
  (fp_line (start -1.75006 0) (end -1.75006 1.50114)
    (stroke (width 0.254) (type solid)) (layer "F.SilkS") (tstamp f9b00381-4a5a-44ba-9044-a730df04cbda))
  (fp_line (start -1.75006 0) (end 1.50114 0)
    (stroke (width 0.254) (type solid)) (layer "F.SilkS") (tstamp 65204360-047a-4ae0-9776-fc2c2dcf41c5))
  (fp_line (start -1.75006 1.50114) (end -2.75082 1.50114)
    (stroke (width 0.254) (type solid)) (layer "F.SilkS") (tstamp 1f5de3a8-804a-4f50-9feb-768ade3646cb))
  (fp_line (start -1.75006 1.50114) (end 1.75006 1.50114)
    (stroke (width 0.254) (type solid)) (layer "F.SilkS") (tstamp b3993cc1-eb1a-408f-8717-f62a7890e069))
  (fp_line (start 1.75006 0) (end 1.50114 0)
    (stroke (width 0.254) (type solid)) (layer "F.SilkS") (tstamp a4d22def-35d9-4b3a-a990-0064812fdbd4))
  (fp_line (start 1.75006 1.50114) (end 1.75006 0)
    (stroke (width 0.254) (type solid)) (layer "F.SilkS") (tstamp 740bea6b-7bce-42f8-9d1e-784f4fc90ce7))
  (fp_line (start 1.75006 1.50114) (end 2.75082 1.50114)
    (stroke (width 0.254) (type solid)) (layer "F.SilkS") (tstamp 0d690275-55f4-4a4f-b6d1-fd787eaeebb4))
  (fp_line (start 2.75082 1.50114) (end 3.50012 1.50114)
    (stroke (width 0.254) (type solid)) (layer "F.SilkS") (tstamp 4334a9f0-45b1-4160-9e43-6933af599390))
  (fp_line (start 3.50012 1.50114) (end 3.50012 7.74954)
    (stroke (width 0.254) (type solid)) (layer "F.SilkS") (tstamp fc79d5ed-5868-411a-877c-098e4cd8126b))
  (pad "1" thru_hole circle (at 2.25298 3.85064 180) (size 1.80086 1.80086) (drill 1.00076) (layers "*.Cu" "*.Mask" "F.SilkS") (tstamp 0defe6fc-734b-4103-9afa-accb35defb25))
  (pad "2" thru_hole circle (at -2.2479 3.85064 180) (size 1.80086 1.80086) (drill 1.00076) (layers "*.Cu" "*.Mask" "F.SilkS") (tstamp 7157d8c5-3dfd-4a91-8c27-cda9082b3494))
  (pad "GND" thru_hole circle (at -3.49758 6.35 180) (size 2.49936 2.49936) (drill 1.50114) (layers "*.Cu" "*.SilkS" "*.Mask") (tstamp a43edc7e-bb6b-4ad6-a69e-edb4110628e6))
  (pad "GND" thru_hole circle (at 3.50266 6.35 180) (size 2.49936 2.49936) (drill 1.50114) (layers "*.Cu" "*.SilkS" "*.Mask") (tstamp a73f401e-fe2c-411a-b220-a6f27e78f5d8))
  (model "tactile_switches/bot_tact_cv1.wrl"
    (offset (xyz 0 0 0))
    (scale (xyz 1.2 1.2 1.2))
    (rotate (xyz 0 0 0))
  )
)
