M48
; DRILL file {KiCad 7.0.7} date 2024 January 23, Tuesday 22:23:41
; FORMAT={-:-/ absolute / inch / decimal}
; #@! TF.CreationDate,2024-01-23T22:23:41+02:00
; #@! TF.GenerationSoftware,Kicad,Pcbnew,7.0.7
; #@! TF.FileFunction,NonPlated,1,4,NPTH
FMAT,2
INCH
; #@! TA.AperFunction,NonPlated,NPTH,ComponentDrill
T1C0.1378
%
G90
G05
T1
X7.6925Y-2.0
T0
M30
