(footprint "LED_1101F" (version 20221018) (generator pcbnew)
  (layer "F.Cu")
  (descr "LED SMD 1101F series  3.0mm x 1.0mm handsolder")
  (tags "LED handsolder")
  (attr smd)
  (fp_text reference "REF**" (at -0.5 -1.65) (layer "F.SilkS")
      (effects (font (size 1 1) (thickness 0.15)))
    (tstamp adeadb62-c044-48e0-ac19-1f0e030ad34d)
  )
  (fp_text value "LED_3010Metric_Pad1.5x1.5mm_HandSolder" (at -0.5 1.65) (layer "F.Fab")
      (effects (font (size 1 1) (thickness 0.15)))
    (tstamp f72ba3d1-160a-4eb3-8a73-ebecbaca6ac6)
  )
  (fp_text user "${REFERENCE}" (at -0.5 0) (layer "F.Fab")
      (effects (font (size 0.5 0.5) (thickness 0.08)))
    (tstamp ffce8aee-2703-47c4-a11e-8c1198fe7b25)
  )
  (fp_line (start -2.75 -0.96) (end -2.75 0.96)
    (stroke (width 0.12) (type solid)) (layer "F.SilkS") (tstamp b7185355-54f6-4d50-9e34-bcf67599e43d))
  (fp_line (start -2.75 0.96) (end 2.75 0.96)
    (stroke (width 0.12) (type solid)) (layer "F.SilkS") (tstamp 3164853b-4968-4482-b929-b2f8d547c21c))
  (fp_line (start 2.75 -0.96) (end -2.75 -0.96)
    (stroke (width 0.12) (type solid)) (layer "F.SilkS") (tstamp 5b530a33-9634-4ec2-b089-ebf9ef324dba))
  (fp_line (start -2.75 -0.95) (end 2.75 -0.95)
    (stroke (width 0.05) (type solid)) (layer "F.CrtYd") (tstamp 3e4b2b1a-c72d-452e-aa12-669fa389df57))
  (fp_line (start -2.75 0.95) (end -2.75 -0.95)
    (stroke (width 0.05) (type solid)) (layer "F.CrtYd") (tstamp 1efa9d3f-899f-47ba-acb1-f3840bc0c266))
  (fp_line (start 2.75 -0.95) (end 2.75 0.95)
    (stroke (width 0.05) (type solid)) (layer "F.CrtYd") (tstamp 9535fc71-84f3-46aa-98de-a6e319a05cce))
  (fp_line (start 2.75 0.95) (end -2.75 0.95)
    (stroke (width 0.05) (type solid)) (layer "F.CrtYd") (tstamp e0786415-e40a-4f75-bad9-689ada1455c6))
  (fp_line (start -1.5 -0.25) (end -1.5 0.5)
    (stroke (width 0.1) (type solid)) (layer "F.Fab") (tstamp 442c19d7-330b-430a-9db4-989c660011cf))
  (fp_line (start -1.5 0.5) (end 1.5 0.5)
    (stroke (width 0.1) (type solid)) (layer "F.Fab") (tstamp 37edfe7b-d45c-4e70-a2bc-723513c40e4b))
  (fp_line (start -1.25 -0.5) (end -1.5 -0.25)
    (stroke (width 0.1) (type solid)) (layer "F.Fab") (tstamp 85ce3d18-b3a9-4e65-ac51-35af002ff769))
  (fp_line (start 1.5 -0.5) (end -1.25 -0.5)
    (stroke (width 0.1) (type solid)) (layer "F.Fab") (tstamp 3c1f2aff-d96d-455f-b586-6049d42c44af))
  (fp_line (start 1.5 0.5) (end 1.5 -0.5)
    (stroke (width 0.1) (type solid)) (layer "F.Fab") (tstamp 7b1f47fd-c2c5-49ef-95bc-288446613287))
  (pad "1" smd roundrect (at -1.75 0) (size 1.5 1.5) (layers "F.Cu" "F.Paste" "F.Mask") (roundrect_rratio 0.217391) (tstamp 8a9a1d94-6834-4a6a-a6c2-697a4f9bf907))
  (pad "2" smd roundrect (at 1.75 0) (size 1.5 1.5) (layers "F.Cu" "F.Paste" "F.Mask") (roundrect_rratio 0.217391) (tstamp 47fc1f0a-91d0-454b-97a3-2f6673f7bd08))
  (pad "MT0" smd roundrect (at 0 0.45) (size 0.9 0.9) (property pad_prop_heatsink) (layers "F.Cu" "F.Paste" "F.Mask") (roundrect_rratio 0.217391) (tstamp e8cac111-b6b3-48ab-af06-dcefaa1b167e))
  (model "${KICAD6_3DMODEL_DIR}/LED_SMD.3dshapes/LED_0805_2012Metric.wrl"
    (offset (xyz -0.5 0 0))
    (scale (xyz 1 1 1))
    (rotate (xyz 0 0 0))
  )
)
