%TF.GenerationSoftware,KiCad,Pcbnew,7.0.7*%
%TF.CreationDate,2024-01-23T22:22:59+02:00*%
%TF.ProjectId,80c51_lcd,38306335-315f-46c6-9364-2e6b69636164,V2.0*%
%TF.SameCoordinates,Original*%
%TF.FileFunction,Other,Comment*%
%FSLAX46Y46*%
G04 Gerber Fmt 4.6, Leading zero omitted, Abs format (unit mm)*
G04 Created by KiCad (PCBNEW 7.0.7) date 2024-01-23 22:22:59*
%MOMM*%
%LPD*%
G01*
G04 APERTURE LIST*
%ADD10C,0.150000*%
G04 APERTURE END LIST*
D10*
%TO.C,HOLE1*%
X152800000Y-115000000D02*
G75*
G03*
X152800000Y-115000000I-2800000J0D01*
G01*
%TO.C,HOLE2*%
X62800000Y-115000000D02*
G75*
G03*
X62800000Y-115000000I-2800000J0D01*
G01*
%TD*%
M02*
