EESchema Schematic File Version 2
EELAYER 25 0
EELAYER END
$Descr USLetter 8500 11000 portrait
encoding utf-8
Sheet 1 1
Title "Minimal 8085A Single Board Computer"
Date "21 aug 2015"
Rev "1.0"
Comp "malinov.com"
Comment1 ""
Comment2 ""
Comment3 ""
Comment4 ""
$EndDescr
Text Label 4100 900  2    60   ~ 0
AD0
Text Label 4100 1000 2    60   ~ 0
AD1
Text Label 4100 1100 2    60   ~ 0
AD2
Text Label 4100 1200 2    60   ~ 0
AD3
Text Label 4100 1300 2    60   ~ 0
AD4
Text Label 4100 1400 2    60   ~ 0
AD5
Text Label 4100 1500 2    60   ~ 0
AD6
Text Label 4100 1600 2    60   ~ 0
AD7
Text Label 4500 900  0    60   ~ 0
AD0
Text Label 4500 1000 0    60   ~ 0
AD1
Text Label 4500 1100 0    60   ~ 0
AD2
Text Label 4500 1200 0    60   ~ 0
AD3
Text Label 4500 1300 0    60   ~ 0
AD4
Text Label 4500 1400 0    60   ~ 0
AD5
Text Label 4500 1500 0    60   ~ 0
AD6
Text Label 4500 1600 0    60   ~ 0
AD7
Text Label 6300 900  2    60   ~ 0
A0
Text Label 6300 1000 2    60   ~ 0
A1
Text Label 6300 1100 2    60   ~ 0
A2
Text Label 6300 1200 2    60   ~ 0
A3
Text Label 6300 1300 2    60   ~ 0
A4
Text Label 6300 1400 2    60   ~ 0
A5
Text Label 6300 1500 2    60   ~ 0
A6
Text Label 6300 1600 2    60   ~ 0
A7
Text Label 4400 5000 0    60   ~ 0
A0
Text Label 4400 5100 0    60   ~ 0
A1
Text Label 4400 5200 0    60   ~ 0
A2
Text Label 4400 5300 0    60   ~ 0
A3
Text Label 4400 5400 0    60   ~ 0
A4
Text Label 4400 5500 0    60   ~ 0
A5
Text Label 4400 5600 0    60   ~ 0
A6
Text Label 4400 5700 0    60   ~ 0
A7
Text Label 4400 5800 0    60   ~ 0
A8
Text Label 4400 5900 0    60   ~ 0
A9
Text Label 4400 6000 0    60   ~ 0
A10
Text Label 4400 6100 0    60   ~ 0
A11
Text Label 4400 6200 0    60   ~ 0
A12
Text Label 4400 6300 0    60   ~ 0
A13
Text Label 4400 6400 0    60   ~ 0
A14
Text Label 6400 5000 2    60   ~ 0
AD0
Text Label 6400 5100 2    60   ~ 0
AD1
Text Label 6400 5200 2    60   ~ 0
AD2
Text Label 6400 5300 2    60   ~ 0
AD3
Text Label 6400 5400 2    60   ~ 0
AD4
Text Label 6400 5500 2    60   ~ 0
AD5
Text Label 6400 5600 2    60   ~ 0
AD6
Text Label 6400 5700 2    60   ~ 0
AD7
Text Label 600  5000 0    60   ~ 0
A0
Text Label 600  5100 0    60   ~ 0
A1
Text Label 600  5200 0    60   ~ 0
A2
Text Label 600  5300 0    60   ~ 0
A3
Text Label 600  5400 0    60   ~ 0
A4
Text Label 600  5500 0    60   ~ 0
A5
Text Label 600  5600 0    60   ~ 0
A6
Text Label 600  5700 0    60   ~ 0
A7
Text Label 600  5800 0    60   ~ 0
A8
Text Label 600  5900 0    60   ~ 0
A9
Text Label 600  6000 0    60   ~ 0
A10
Text Label 600  6100 0    60   ~ 0
A11
Text Label 600  6200 0    60   ~ 0
A12
Text Label 600  6300 0    60   ~ 0
A13
Text Label 2600 5000 2    60   ~ 0
AD0
Text Label 2600 5100 2    60   ~ 0
AD1
Text Label 2600 5200 2    60   ~ 0
AD2
Text Label 2600 5300 2    60   ~ 0
AD3
Text Label 2600 5400 2    60   ~ 0
AD4
Text Label 2600 5500 2    60   ~ 0
AD5
Text Label 2600 5600 2    60   ~ 0
AD6
Text Label 2600 5700 2    60   ~ 0
AD7
Text Label 600  7900 0    60   ~ 0
AD0
Text Label 600  8000 0    60   ~ 0
AD1
Text Label 600  8100 0    60   ~ 0
AD2
Text Label 600  8200 0    60   ~ 0
AD3
Text Label 600  8300 0    60   ~ 0
AD4
Text Label 600  8400 0    60   ~ 0
AD5
Text Label 600  8500 0    60   ~ 0
AD6
Text Label 600  8600 0    60   ~ 0
AD7
Text Label 600  8800 0    60   ~ 0
A0
Text Label 600  9000 0    60   ~ 0
~USART_CS
Text Label 600  9100 0    60   ~ 0
~RD
Text Label 600  9200 0    60   ~ 0
~WR
Text Label 600  9400 0    60   ~ 0
RESET
Text Label 600  9600 0    60   ~ 0
3.072MHz
Text Label 4100 4100 2    60   ~ 0
3.072MHz
Text Label 4100 3700 2    60   ~ 0
RESET
Text Label 3400 8600 2    60   ~ 0
TXD
Text Label 3400 8900 2    60   ~ 0
RXD
Text Label 3400 8800 2    60   ~ 0
~CTS
Text Label 3400 8500 2    60   ~ 0
~RTS
Text Label 600  6900 0    60   ~ 0
~RD
Text Label 600  6800 0    60   ~ 0
~ROM_CS
Text Label 4400 6700 0    60   ~ 0
~RD
Text Label 4400 6800 0    60   ~ 0
~WR
Text Label 600  6500 0    60   ~ 0
ROM_1
Text Label 600  6600 0    60   ~ 0
ROM_27
Text Label 4100 2600 2    60   ~ 0
ALE
Text Label 4500 1800 0    60   ~ 0
ALE
Text Label 4100 3200 2    60   ~ 0
~RD
Text Label 4100 3300 2    60   ~ 0
~WR
Text Label 4100 3000 2    60   ~ 0
IO/~M
Text Notes 550  10450 0    60   ~ 0
ROM Type\n------\n27C128\n27C256\n28C256/SRAM\n29C256
Text Label 3100 5700 0    60   ~ 0
~WR
Text Label 3100 5000 0    60   ~ 0
A14
Text Label 3100 5200 0    60   ~ 0
VCC
Text Label 3100 5600 0    60   ~ 0
ROM_27
Text Label 3100 5100 0    60   ~ 0
ROM_1
Text Label 4100 1700 2    60   ~ 0
A8
Text Label 4100 1800 2    60   ~ 0
A9
Text Label 4100 1900 2    60   ~ 0
A10
Text Label 4100 2000 2    60   ~ 0
A11
Text Label 4100 2100 2    60   ~ 0
A12
Text Label 4100 2200 2    60   ~ 0
A13
Text Label 4100 2300 2    60   ~ 0
A14
Text Label 4100 2400 2    60   ~ 0
A15
Text Label 1900 1300 0    60   ~ 0
INTR
Text Label 4100 3600 2    60   ~ 0
~INTA
Text Label 1900 1100 0    60   ~ 0
HOLD
Text Label 1900 900  0    60   ~ 0
READY
Text Label 1900 2700 0    60   ~ 0
SID
Text Label 4100 3900 2    60   ~ 0
SOD
Text Notes 700  4500 0    60   ~ 0
CMOS CPU: C14, C15 - 33pF\nNMOS CPU, Y1 > 4 MHz : C14, C15 - Do not populate\nNMOS CPU, Y1 <= 4 MHz : C14 - 20pF, C15 - Do not populate
Text Label 1900 1700 0    60   ~ 0
RST7_5
Text Label 1900 1500 0    60   ~ 0
RST5_5
Text Label 1900 1600 0    60   ~ 0
RST6_5
Text Label 1900 1900 0    60   ~ 0
TRAP
Text Label 7200 3000 1    60   ~ 0
RST7_5
Text Label 7100 3000 1    60   ~ 0
TRAP
Text Label 7500 3000 1    60   ~ 0
INTR
Text Label 7300 3000 1    60   ~ 0
HOLD
Text Label 7100 1600 1    60   ~ 0
READY
Text Label 3100 5500 0    60   ~ 0
VCC
NoConn ~ 3700 2900
NoConn ~ 3700 2800
Text Label 6000 3700 2    60   ~ 0
A0
Text Label 4700 3700 0    60   ~ 0
A1
Text Label 6000 3800 2    60   ~ 0
A2
Text Label 4700 3800 0    60   ~ 0
A3
Text Label 6000 3900 2    60   ~ 0
A4
Text Label 4700 3900 0    60   ~ 0
A5
Text Label 6000 4000 2    60   ~ 0
A6
Text Label 4700 4000 0    60   ~ 0
A7
Text Label 6000 2700 2    60   ~ 0
A8
Text Label 4700 2700 0    60   ~ 0
A9
Text Label 6000 2800 2    60   ~ 0
A10
Text Label 4700 2800 0    60   ~ 0
A11
Text Label 6000 2900 2    60   ~ 0
A12
Text Label 4700 2900 0    60   ~ 0
A13
Text Label 6000 3000 2    60   ~ 0
A14
Text Label 4700 3000 0    60   ~ 0
A15
Text Label 6000 3100 2    60   ~ 0
AD0
Text Label 4700 3100 0    60   ~ 0
AD1
Text Label 6000 3200 2    60   ~ 0
AD2
Text Label 4700 3200 0    60   ~ 0
AD3
Text Label 6000 3300 2    60   ~ 0
AD4
Text Label 4700 3300 0    60   ~ 0
AD5
Text Label 6000 3400 2    60   ~ 0
AD6
Text Label 4700 3400 0    60   ~ 0
AD7
Text Label 6000 3500 2    60   ~ 0
IO/~M
Text Label 4700 3500 0    60   ~ 0
~RD
Text Label 4700 3600 0    60   ~ 0
~WR
Text Label 6000 2400 2    60   ~ 0
INTR
Text Label 6000 2500 2    60   ~ 0
~INTA
Text Label 6000 2300 2    60   ~ 0
3.072MHz
Text Label 4700 2400 0    60   ~ 0
RST5_5
Text Label 6000 3600 2    60   ~ 0
RESET
NoConn ~ 2200 8600
NoConn ~ 2200 9300
$Comp
L CONN_1 HOLE1
U 1 1 559E02E9
P 7250 3800
F 0 "HOLE1" H 7330 3800 40  0000 L CNN
F 1 "CONN_1" H 7250 3855 30  0001 C CNN
F 2 "my_components:Hole_3mm" H 7250 3800 60  0001 C CNN
F 3 "" H 7250 3800 60  0000 C CNN
	1    7250 3800
	1    0    0    -1  
$EndComp
$Comp
L CONN_1 HOLE2
U 1 1 559E02F8
P 7250 3900
F 0 "HOLE2" H 7330 3900 40  0000 L CNN
F 1 "CONN_1" H 7250 3955 30  0001 C CNN
F 2 "my_components:Hole_3mm" H 7250 3900 60  0001 C CNN
F 3 "" H 7250 3900 60  0000 C CNN
	1    7250 3900
	1    0    0    -1  
$EndComp
$Comp
L CONN_1 HOLE3
U 1 1 559E0307
P 7250 4000
F 0 "HOLE3" H 7330 4000 40  0000 L CNN
F 1 "CONN_1" H 7250 4055 30  0001 C CNN
F 2 "my_components:Hole_3mm" H 7250 4000 60  0001 C CNN
F 3 "" H 7250 4000 60  0000 C CNN
	1    7250 4000
	1    0    0    -1  
$EndComp
$Comp
L CONN_1 HOLE4
U 1 1 559E0316
P 7250 4100
F 0 "HOLE4" H 7330 4100 40  0000 L CNN
F 1 "CONN_1" H 7250 4155 30  0001 C CNN
F 2 "my_components:Hole_3mm" H 7250 4100 60  0001 C CNN
F 3 "" H 7250 4100 60  0000 C CNN
	1    7250 4100
	1    0    0    -1  
$EndComp
Text Label 7200 1600 1    60   ~ 0
IO/~M
Text Label 7400 1600 1    60   ~ 0
~RD
Text Label 7500 1600 1    60   ~ 0
~WR
NoConn ~ 2200 8500
Text Label 7400 3000 1    60   ~ 0
RST5_5
Text Label 2700 9000 2    60   ~ 0
RST6_5
Text Label 4700 2300 0    60   ~ 0
TRAP
Text Label 4700 2500 0    60   ~ 0
RST7_5
NoConn ~ 3700 3500
Text Label 4700 2600 0    60   ~ 0
ALE
Text Label 2500 9600 0    60   ~ 0
UART_CLK
Text Label 2500 9700 0    60   ~ 0
153.6kHz
Text Label 2500 9500 0    60   ~ 0
307.2kHz
Text Notes 3100 4800 0    120  ~ 0
Memory
Text Notes 1700 7600 0    120  ~ 0
Serial Port
Text Notes 2800 700  0    120  ~ 0
CPU
Text Notes 6700 2100 0    120  ~ 0
Pull-downs
Text Notes 6800 3700 0    120  ~ 0
Mounting\nHoles
Text Notes 6700 7300 0    60   ~ 0
LED D2:\nDialight 566-0206F
$Comp
L 74LS573 U6
U 1 1 57C60AE5
P 5400 1400
F 0 "U6" H 5100 2050 60  0000 L CNN
F 1 "74HC573" H 5100 750 60  0000 L CNN
F 2 "my_components:IC_DIP20_300" H 5400 1400 60  0001 C CNN
F 3 "" H 5400 1400 60  0000 C CNN
	1    5400 1400
	1    0    0    -1  
$EndComp
$Comp
L ATF16V8B U5
U 1 1 57C741EC
P 7000 8350
F 0 "U5" H 6700 8950 60  0000 L CNN
F 1 "GAL16V8" H 6700 7750 60  0000 L CNN
F 2 "my_components:IC_DIP20_300" H 7000 8250 60  0001 C CNN
F 3 "" H 7000 8250 60  0000 C CNN
	1    7000 8350
	1    0    0    -1  
$EndComp
Text Label 6100 7900 0    60   ~ 0
3.072MHz
Text Label 6100 8000 0    60   ~ 0
IO/~M
Text Label 6100 8100 0    60   ~ 0
A15
Text Label 6100 8200 0    60   ~ 0
~SWAP_MEM
Text Label 6100 8300 0    60   ~ 0
A7
Text Label 6100 8400 0    60   ~ 0
A6
Text Label 6100 8500 0    60   ~ 0
A5
Text Label 6100 8600 0    60   ~ 0
A4
Text Label 6100 8700 0    60   ~ 0
A3
Text Label 7900 7900 2    60   ~ 0
Q0
Text Label 7900 8000 2    60   ~ 0
Q1
Text Label 7900 8100 2    60   ~ 0
Q2
Text Label 7900 8200 2    60   ~ 0
307.2kHz
Text Label 7900 8300 2    60   ~ 0
153.6kHz
Text Label 7900 8500 2    60   ~ 0
~ROM_CS
Text Label 7900 8600 2    60   ~ 0
~RAM_CS
Text Label 7900 8400 2    60   ~ 0
~USART_CS
Text Label 6000 2600 2    60   ~ 0
~SWAP_MEM
Text Notes 6600 7600 0    120  ~ 0
Glue Logic
$Comp
L GND #PWR01
U 1 1 57C8740E
P 4500 2000
F 0 "#PWR01" H 4500 1750 50  0001 C CNN
F 1 "GND" H 4500 1850 50  0000 C CNN
F 2 "" H 4500 2000 50  0000 C CNN
F 3 "" H 4500 2000 50  0000 C CNN
	1    4500 2000
	1    0    0    -1  
$EndComp
$Comp
L GND #PWR02
U 1 1 57C87C5C
P 6300 8900
F 0 "#PWR02" H 6300 8650 50  0001 C CNN
F 1 "GND" H 6300 8750 50  0000 C CNN
F 2 "" H 6300 8900 50  0000 C CNN
F 3 "" H 6300 8900 50  0000 C CNN
	1    6300 8900
	1    0    0    -1  
$EndComp
$Comp
L CONN_01X03 JP3
U 1 1 57C8A311
P 3100 9600
F 0 "JP3" H 3100 9800 50  0000 C CNN
F 1 "CLK" H 3100 9400 50  0000 C CNN
F 2 "my_components:Conn_Pin_Header_3x1_2.54mm" H 3100 9600 50  0001 C CNN
F 3 "" H 3100 9600 50  0000 C CNN
	1    3100 9600
	1    0    0    -1  
$EndComp
$Comp
L CONN_01X03 JP1
U 1 1 57C8A9BE
P 3700 5100
F 0 "JP1" H 3700 5300 50  0000 C CNN
F 1 "ROM_1" V 3800 5100 50  0000 C CNN
F 2 "my_components:Conn_Pin_Header_3x1_2.54mm" H 3700 5100 50  0001 C CNN
F 3 "" H 3700 5100 50  0000 C CNN
	1    3700 5100
	1    0    0    -1  
$EndComp
$Comp
L CONN_01X03 JP2
U 1 1 57C8AA57
P 3700 5600
F 0 "JP2" H 3700 5800 50  0000 C CNN
F 1 "ROM_27" V 3800 5600 50  0000 C CNN
F 2 "my_components:Conn_Pin_Header_3x1_2.54mm" H 3700 5600 50  0001 C CNN
F 3 "" H 3700 5600 50  0000 C CNN
	1    3700 5600
	1    0    0    -1  
$EndComp
$Comp
L CONN_02X20 P4
U 1 1 57C8B0FB
P 5350 3250
F 0 "P4" H 5350 4300 50  0000 C CNN
F 1 "EXTENSION" V 5350 3250 50  0000 C CNN
F 2 "my_components:Conn_Pin_Header_20x2_2.54mm" H 5350 2300 50  0001 C CNN
F 3 "" H 5350 2300 50  0000 C CNN
	1    5350 3250
	1    0    0    -1  
$EndComp
$Comp
L 27C128 U3
U 1 1 57C8E372
P 1600 5950
F 0 "U3" H 1200 7050 60  0000 L CNN
F 1 "27C128" H 1200 4850 60  0000 L CNN
F 2 "my_components:IC_DIP28_600" H 1600 5950 60  0001 C CNN
F 3 "" H 1600 5950 60  0000 C CNN
	1    1600 5950
	1    0    0    -1  
$EndComp
$Comp
L 8251A U2
U 1 1 57C8FD80
P 1600 8750
F 0 "U2" H 1200 9750 60  0000 L CNN
F 1 "82C51A" H 1200 7750 60  0000 L CNN
F 2 "my_components:IC_DIP28_600" H 1600 8750 60  0001 C CNN
F 3 "" H 1600 8750 60  0000 C CNN
	1    1600 8750
	1    0    0    -1  
$EndComp
$Comp
L CONN_01X03 P1
U 1 1 57C91172
P 6800 5200
F 0 "P1" H 6800 5400 50  0000 C CNN
F 1 "POWER" V 6900 5200 50  0000 C CNN
F 2 "my_components:Conn_Power_Jack_Circular_Pads" H 6800 5200 50  0001 C CNN
F 3 "" H 6800 5200 50  0000 C CNN
	1    6800 5200
	-1   0    0    -1  
$EndComp
NoConn ~ 7900 7900
NoConn ~ 7900 8000
NoConn ~ 7900 8100
$Comp
L CONN_01X03 P2
U 1 1 57C9C7EE
P 700 3800
F 0 "P2" H 700 4000 50  0000 C CNN
F 1 "SIO" V 800 3800 50  0000 C CNN
F 2 "my_components:Conn_Pin_Header_3x1_2.54mm" H 700 3800 50  0001 C CNN
F 3 "" H 700 3800 50  0000 C CNN
	1    700  3800
	-1   0    0    1   
$EndComp
Text Label 1300 3700 2    60   ~ 0
SID
Text Label 1300 3800 2    60   ~ 0
SOD
$Comp
L 8085 U1
U 1 1 57CA8AF7
P 3000 2500
F 0 "U1" H 2500 4250 60  0000 L CNN
F 1 "80C85A" H 2500 750 60  0000 L CNN
F 2 "my_components:IC_DIP40_600" H 3000 2550 60  0001 C CNN
F 3 "" H 3000 2550 60  0000 C CNN
	1    3000 2500
	1    0    0    -1  
$EndComp
$Comp
L D D1
U 1 1 57CAAAE8
P 1200 1050
F 0 "D1" H 1200 1150 50  0000 C CNN
F 1 "1N4148" H 1200 950 50  0000 C CNN
F 2 "my_components:Diode_762" H 1200 1050 50  0001 C CNN
F 3 "" H 1200 1050 50  0000 C CNN
	1    1200 1050
	0    1    1    0   
$EndComp
$Comp
L R R3
U 1 1 57CAB359
P 1500 1050
F 0 "R3" V 1580 1050 50  0000 C CNN
F 1 "100k" V 1500 1050 50  0000 C CNN
F 2 "my_components:Res_762" V 1430 1050 50  0001 C CNN
F 3 "" H 1500 1050 50  0000 C CNN
	1    1500 1050
	1    0    0    -1  
$EndComp
$Comp
L R R1
U 1 1 57CABCA0
P 950 1300
F 0 "R1" V 1030 1300 50  0000 C CNN
F 1 "33" V 950 1300 50  0000 C CNN
F 2 "my_components:Res_762" V 880 1300 50  0001 C CNN
F 3 "" H 950 1300 50  0000 C CNN
	1    950  1300
	0    1    1    0   
$EndComp
$Comp
L TACT_SW_VERT SW1
U 1 1 57CAC052
P 700 1700
F 0 "SW1" H 500 1550 50  0000 C CNN
F 1 "RESET" H 900 1550 50  0000 C CNN
F 2 "my_components:Switch_Tactile_6mm_Right" H 700 1700 60  0001 C CNN
F 3 "" H 700 1700 60  0000 C CNN
	1    700  1700
	0    -1   -1   0   
$EndComp
$Comp
L Crystal Y1
U 1 1 57CAD591
P 1250 2700
F 0 "Y1" H 1250 2850 50  0000 C CNN
F 1 "6.144MHz" H 1250 2550 50  0000 C CNN
F 2 "my_components:Crystal_HC-49U_Vert" H 1250 2700 50  0001 C CNN
F 3 "" H 1250 2700 50  0000 C CNN
	1    1250 2700
	1    0    0    -1  
$EndComp
$Comp
L C C14
U 1 1 57CAE03A
P 1500 3050
F 0 "C14" H 1525 3150 50  0000 L CNN
F 1 "33pF" H 1525 2950 50  0000 L CNN
F 2 "my_components:Cap_Cer_508" H 1538 2900 50  0001 C CNN
F 3 "" H 1500 3050 50  0000 C CNN
	1    1500 3050
	1    0    0    -1  
$EndComp
$Comp
L C C15
U 1 1 57CAE52D
P 1000 3050
F 0 "C15" H 1025 3150 50  0000 L CNN
F 1 "33pF" H 1025 2950 50  0000 L CNN
F 2 "my_components:Cap_Cer_508" H 1038 2900 50  0001 C CNN
F 3 "" H 1000 3050 50  0000 C CNN
	1    1000 3050
	1    0    0    -1  
$EndComp
$Comp
L CP1 C12
U 1 1 57CAEEA2
P 1500 1850
F 0 "C12" H 1525 1950 50  0000 L CNN
F 1 "1uF" H 1525 1750 50  0000 L CNN
F 2 "my_components:Cap_Pol_508_3" H 1500 1850 50  0001 C CNN
F 3 "" H 1500 1850 50  0000 C CNN
	1    1500 1850
	1    0    0    -1  
$EndComp
$Comp
L C C1
U 1 1 57CB085E
P 6900 6150
F 0 "C1" H 6925 6250 50  0000 L CNN
F 1 "0.1uF" H 6925 6050 50  0000 L CNN
F 2 "my_components:Cap_Cer_508" H 6938 6000 50  0001 C CNN
F 3 "" H 6900 6150 50  0000 C CNN
	1    6900 6150
	1    0    0    -1  
$EndComp
$Comp
L C C2
U 1 1 57CB0971
P 7200 6150
F 0 "C2" H 7225 6250 50  0000 L CNN
F 1 "0.1uF" H 7225 6050 50  0000 L CNN
F 2 "my_components:Cap_Cer_508" H 7238 6000 50  0001 C CNN
F 3 "" H 7200 6150 50  0000 C CNN
	1    7200 6150
	1    0    0    -1  
$EndComp
$Comp
L C C3
U 1 1 57CB0A05
P 7500 6150
F 0 "C3" H 7525 6250 50  0000 L CNN
F 1 "0.1uF" H 7525 6050 50  0000 L CNN
F 2 "my_components:Cap_Cer_508" H 7538 6000 50  0001 C CNN
F 3 "" H 7500 6150 50  0000 C CNN
	1    7500 6150
	1    0    0    -1  
$EndComp
$Comp
L C C5
U 1 1 57CB0DF4
P 7800 6150
F 0 "C5" H 7825 6250 50  0000 L CNN
F 1 "0.1uF" H 7825 6050 50  0000 L CNN
F 2 "my_components:Cap_Cer_508" H 7838 6000 50  0001 C CNN
F 3 "" H 7800 6150 50  0000 C CNN
	1    7800 6150
	1    0    0    -1  
$EndComp
$Comp
L C C6
U 1 1 57CB0E97
P 6900 6850
F 0 "C6" H 6925 6950 50  0000 L CNN
F 1 "0.1uF" H 6925 6750 50  0000 L CNN
F 2 "my_components:Cap_Cer_508" H 6938 6700 50  0001 C CNN
F 3 "" H 6900 6850 50  0000 C CNN
	1    6900 6850
	1    0    0    -1  
$EndComp
$Comp
L CP1 C13
U 1 1 57CB2EBF
P 7500 6850
F 0 "C13" H 7525 6950 50  0000 L CNN
F 1 "10uF" H 7525 6750 50  0000 L CNN
F 2 "my_components:Cap_Pol_508_3" H 7500 6850 50  0001 C CNN
F 3 "" H 7500 6850 50  0000 C CNN
	1    7500 6850
	1    0    0    -1  
$EndComp
$Comp
L R R2
U 1 1 57CB37A0
P 7550 5000
F 0 "R2" V 7630 5000 50  0000 C CNN
F 1 "470" V 7550 5000 50  0000 C CNN
F 2 "my_components:Res_762" V 7480 5000 50  0001 C CNN
F 3 "" H 7550 5000 50  0000 C CNN
	1    7550 5000
	0    1    1    0   
$EndComp
$Comp
L Led_Small D2
U 1 1 57CB3924
P 7800 5200
F 0 "D2" H 7750 5325 50  0000 L CNN
F 1 "PWR" H 7625 5100 50  0000 L CNN
F 2 "my_components:LED_Dialight_566-0206F" V 7800 5200 50  0001 C CNN
F 3 "" V 7800 5200 50  0000 C CNN
	1    7800 5200
	0    -1   -1   0   
$EndComp
$Comp
L RR5 RR1
U 1 1 589305A6
P 7250 900
F 0 "RR1" H 7150 1250 50  0000 L CNN
F 1 "4.7k" H 7150 550 50  0000 L CNN
F 2 "my_components:Conn_SIL6" H 7250 700 50  0001 C CNN
F 3 "" H 7250 700 50  0000 C CNN
	1    7250 900 
	0    -1   -1   0   
$EndComp
$Comp
L RR5 RR2
U 1 1 5893067D
P 7250 2300
F 0 "RR2" H 7150 2650 50  0000 L CNN
F 1 "4.7k" H 7150 1950 50  0000 L CNN
F 2 "my_components:Conn_SIL6" H 7250 2100 50  0001 C CNN
F 3 "" H 7250 2100 50  0000 C CNN
	1    7250 2300
	0    -1   -1   0   
$EndComp
$Comp
L VCC #PWR03
U 1 1 58931143
P 6700 1200
F 0 "#PWR03" H 6700 1050 50  0001 C CNN
F 1 "VCC" H 6700 1350 50  0000 C CNN
F 2 "" H 6700 1200 50  0000 C CNN
F 3 "" H 6700 1200 50  0000 C CNN
	1    6700 1200
	1    0    0    -1  
$EndComp
$Comp
L VCC #PWR04
U 1 1 589318B5
P 1500 800
F 0 "#PWR04" H 1500 650 50  0001 C CNN
F 1 "VCC" H 1500 950 50  0000 C CNN
F 2 "" H 1500 800 50  0000 C CNN
F 3 "" H 1500 800 50  0000 C CNN
	1    1500 800 
	1    0    0    -1  
$EndComp
$Comp
L VCC #PWR05
U 1 1 589319EF
P 1200 800
F 0 "#PWR05" H 1200 650 50  0001 C CNN
F 1 "VCC" H 1200 950 50  0000 C CNN
F 2 "" H 1200 800 50  0000 C CNN
F 3 "" H 1200 800 50  0000 C CNN
	1    1200 800 
	1    0    0    -1  
$EndComp
$Comp
L VCC #PWR06
U 1 1 58932769
P 7100 4900
F 0 "#PWR06" H 7100 4750 50  0001 C CNN
F 1 "VCC" H 7100 5050 50  0000 C CNN
F 2 "" H 7100 4900 50  0000 C CNN
F 3 "" H 7100 4900 50  0000 C CNN
	1    7100 4900
	1    0    0    -1  
$EndComp
$Comp
L PWR_FLAG #FLG07
U 1 1 58932B34
P 7300 4900
F 0 "#FLG07" H 7300 4995 50  0001 C CNN
F 1 "PWR_FLAG" H 7400 5100 50  0000 C CNN
F 2 "" H 7300 4900 50  0000 C CNN
F 3 "" H 7300 4900 50  0000 C CNN
	1    7300 4900
	1    0    0    -1  
$EndComp
$Comp
L PWR_FLAG #FLG08
U 1 1 58932BB8
P 7300 5400
F 0 "#FLG08" H 7300 5495 50  0001 C CNN
F 1 "PWR_FLAG" H 7300 5600 50  0000 C CNN
F 2 "" H 7300 5400 50  0000 C CNN
F 3 "" H 7300 5400 50  0000 C CNN
	1    7300 5400
	1    0    0    -1  
$EndComp
$Comp
L VCC #PWR09
U 1 1 58933514
P 4500 4000
F 0 "#PWR09" H 4500 3850 50  0001 C CNN
F 1 "VCC" H 4500 4150 50  0000 C CNN
F 2 "" H 4500 4000 50  0000 C CNN
F 3 "" H 4500 4000 50  0000 C CNN
	1    4500 4000
	1    0    0    -1  
$EndComp
$Comp
L VCC #PWR010
U 1 1 58933572
P 6200 4000
F 0 "#PWR010" H 6200 3850 50  0001 C CNN
F 1 "VCC" H 6200 4150 50  0000 C CNN
F 2 "" H 6200 4000 50  0000 C CNN
F 3 "" H 6200 4000 50  0000 C CNN
	1    6200 4000
	1    0    0    -1  
$EndComp
$Comp
L GND #PWR011
U 1 1 589337FB
P 700 2100
F 0 "#PWR011" H 700 1850 50  0001 C CNN
F 1 "GND" H 700 1950 50  0000 C CNN
F 2 "" H 700 2100 50  0000 C CNN
F 3 "" H 700 2100 50  0000 C CNN
	1    700  2100
	1    0    0    -1  
$EndComp
$Comp
L GND #PWR012
U 1 1 58933B8D
P 1000 2100
F 0 "#PWR012" H 1000 1850 50  0001 C CNN
F 1 "GND" H 1000 1950 50  0000 C CNN
F 2 "" H 1000 2100 50  0000 C CNN
F 3 "" H 1000 2100 50  0000 C CNN
	1    1000 2100
	1    0    0    -1  
$EndComp
$Comp
L GND #PWR013
U 1 1 58933BEB
P 1500 2100
F 0 "#PWR013" H 1500 1850 50  0001 C CNN
F 1 "GND" H 1500 1950 50  0000 C CNN
F 2 "" H 1500 2100 50  0000 C CNN
F 3 "" H 1500 2100 50  0000 C CNN
	1    1500 2100
	1    0    0    -1  
$EndComp
$Comp
L GND #PWR014
U 1 1 58933C49
P 1000 3300
F 0 "#PWR014" H 1000 3050 50  0001 C CNN
F 1 "GND" H 1000 3150 50  0000 C CNN
F 2 "" H 1000 3300 50  0000 C CNN
F 3 "" H 1000 3300 50  0000 C CNN
	1    1000 3300
	1    0    0    -1  
$EndComp
$Comp
L GND #PWR015
U 1 1 58933CA7
P 1500 3300
F 0 "#PWR015" H 1500 3050 50  0001 C CNN
F 1 "GND" H 1500 3150 50  0000 C CNN
F 2 "" H 1500 3300 50  0000 C CNN
F 3 "" H 1500 3300 50  0000 C CNN
	1    1500 3300
	1    0    0    -1  
$EndComp
$Comp
L GND #PWR016
U 1 1 58933D05
P 1000 4000
F 0 "#PWR016" H 1000 3750 50  0001 C CNN
F 1 "GND" H 1000 3850 50  0000 C CNN
F 2 "" H 1000 4000 50  0000 C CNN
F 3 "" H 1000 4000 50  0000 C CNN
	1    1000 4000
	-1   0    0    -1  
$EndComp
$Comp
L GND #PWR017
U 1 1 5893439C
P 5000 4300
F 0 "#PWR017" H 5000 4050 50  0001 C CNN
F 1 "GND" H 5000 4150 50  0000 C CNN
F 2 "" H 5000 4300 50  0000 C CNN
F 3 "" H 5000 4300 50  0000 C CNN
	1    5000 4300
	1    0    0    -1  
$EndComp
$Comp
L GND #PWR018
U 1 1 589343FA
P 5700 4300
F 0 "#PWR018" H 5700 4050 50  0001 C CNN
F 1 "GND" H 5700 4150 50  0000 C CNN
F 2 "" H 5700 4300 50  0000 C CNN
F 3 "" H 5700 4300 50  0000 C CNN
	1    5700 4300
	1    0    0    -1  
$EndComp
$Comp
L GND #PWR019
U 1 1 58934CBB
P 7100 5500
F 0 "#PWR019" H 7100 5250 50  0001 C CNN
F 1 "GND" H 7100 5350 50  0000 C CNN
F 2 "" H 7100 5500 50  0000 C CNN
F 3 "" H 7100 5500 50  0000 C CNN
	1    7100 5500
	1    0    0    -1  
$EndComp
$Comp
L GND #PWR020
U 1 1 589351F4
P 6800 4000
F 0 "#PWR020" H 6800 3750 50  0001 C CNN
F 1 "GND" H 6800 3850 50  0000 C CNN
F 2 "" H 6800 4000 50  0000 C CNN
F 3 "" H 6800 4000 50  0000 C CNN
	1    6800 4000
	1    0    0    -1  
$EndComp
$Comp
L MAX232 U7
U 1 1 58AD456A
P 3900 8400
F 0 "U7" H 3600 9050 60  0000 L CNN
F 1 "MAX232A" H 3600 7750 60  0000 L CNN
F 2 "my_components:IC_DIP16_300" H 3900 8400 60  0001 C CNN
F 3 "" H 3900 8400 60  0000 C CNN
	1    3900 8400
	1    0    0    -1  
$EndComp
$Comp
L DE9 P3
U 1 1 58AD9D21
P 5500 8600
F 0 "P3" H 5500 9350 70  0000 C CNN
F 1 "SERIAL" H 5500 9250 70  0000 C CNN
F 2 "my_components:Conn_Dsub_DE9M" H 5600 8600 60  0001 C CNN
F 3 "" H 5600 8600 60  0000 C CNN
	1    5500 8600
	1    0    0    -1  
$EndComp
$Comp
L CP1 C9
U 1 1 58ADA4C6
P 4650 7900
F 0 "C9" V 4400 7900 50  0000 C CNN
F 1 "0.1uF" V 4500 7900 50  0000 C CNN
F 2 "my_components:Cap_Pol_508_3" H 4650 7900 50  0001 C CNN
F 3 "" H 4650 7900 50  0000 C CNN
	1    4650 7900
	0    1    1    0   
$EndComp
$Comp
L CP1 C11
U 1 1 58ADA579
P 4650 8200
F 0 "C11" V 4800 8200 50  0000 C CNN
F 1 "0.1uF" V 4500 8200 50  0000 C CNN
F 2 "my_components:Cap_Pol_508_3" H 4650 8200 50  0001 C CNN
F 3 "" H 4650 8200 50  0000 C CNN
	1    4650 8200
	0    -1   -1   0   
$EndComp
$Comp
L GND #PWR021
U 1 1 58ADA616
P 4900 8300
F 0 "#PWR021" H 4900 8050 50  0001 C CNN
F 1 "GND" H 4900 8150 50  0000 C CNN
F 2 "" H 4900 8300 50  0000 C CNN
F 3 "" H 4900 8300 50  0000 C CNN
	1    4900 8300
	1    0    0    -1  
$EndComp
NoConn ~ 5100 8300
NoConn ~ 5100 8400
NoConn ~ 5100 8900
NoConn ~ 5100 9000
$Comp
L VCC #PWR022
U 1 1 58ADB60B
P 4900 7800
F 0 "#PWR022" H 4900 7650 50  0001 C CNN
F 1 "VCC" H 4900 7950 50  0000 C CNN
F 2 "" H 4900 7800 50  0000 C CNN
F 3 "" H 4900 7800 50  0000 C CNN
	1    4900 7800
	1    0    0    -1  
$EndComp
$Comp
L CP1 C8
U 1 1 58ADBF99
P 3050 7800
F 0 "C8" V 2900 7800 50  0000 C CNN
F 1 "0.1uF" V 3200 7800 50  0000 C CNN
F 2 "my_components:Cap_Pol_508_3" H 3050 7800 50  0001 C CNN
F 3 "" H 3050 7800 50  0000 C CNN
	1    3050 7800
	0    1    1    0   
$EndComp
$Comp
L CP1 C10
U 1 1 58ADC05E
P 3050 8200
F 0 "C10" V 2900 8200 50  0000 C CNN
F 1 "0.1uF" V 3200 8200 50  0000 C CNN
F 2 "my_components:Cap_Pol_508_3" H 3050 8200 50  0001 C CNN
F 3 "" H 3050 8200 50  0000 C CNN
	1    3050 8200
	0    1    1    0   
$EndComp
Text Label 4400 8500 0    60   ~ 0
RTS
Text Label 4400 8600 0    60   ~ 0
TX
Text Label 4400 8800 0    60   ~ 0
CTS
Text Label 4400 8900 0    60   ~ 0
RX
$Comp
L DS1210 U8
U 1 1 58B0A258
P 3300 6800
F 0 "U8" H 3000 7100 60  0000 L CNN
F 1 "DS1210" H 3000 6500 60  0000 L CNN
F 2 "my_components:IC_DIP8_300" H 3300 6800 60  0001 C CNN
F 3 "" H 3300 6800 60  0000 C CNN
	1    3300 6800
	1    0    0    -1  
$EndComp
Text Notes 6800 700  0    120  ~ 0
Pull-ups
$Comp
L GND #PWR023
U 1 1 58B0D813
P 6800 2800
F 0 "#PWR023" H 6800 2550 50  0001 C CNN
F 1 "GND" H 6800 2650 50  0000 C CNN
F 2 "" H 6800 2800 50  0000 C CNN
F 3 "" H 6800 2800 50  0000 C CNN
	1    6800 2800
	1    0    0    -1  
$EndComp
Text Label 2300 6700 0    60   ~ 0
~RAM_CS
Text Label 4800 6600 2    60   ~ 0
~RAM_CSO
$Comp
L AS6C62256_PWR U4
U 1 1 58B10B03
P 5400 5900
F 0 "U4" H 5000 6950 60  0000 L CNN
F 1 "62256" H 5000 4850 60  0000 L CNN
F 2 "my_components:IC_DIP28_600" H 5400 5900 60  0001 C CNN
F 3 "" H 5400 5900 60  0000 C CNN
	1    5400 5900
	1    0    0    -1  
$EndComp
$Comp
L C C4
U 1 1 58B19B57
P 6100 6450
F 0 "C4" H 6125 6550 50  0000 L CNN
F 1 "0.1uF" H 6125 6350 50  0000 L CNN
F 2 "my_components:Cap_Cer_508" H 6138 6300 50  0001 C CNN
F 3 "" H 6100 6450 50  0000 C CNN
	1    6100 6450
	1    0    0    -1  
$EndComp
$Comp
L GND #PWR024
U 1 1 58B1A80A
P 6100 6900
F 0 "#PWR024" H 6100 6650 50  0001 C CNN
F 1 "GND" H 6100 6750 50  0000 C CNN
F 2 "" H 6100 6900 50  0000 C CNN
F 3 "" H 6100 6900 50  0000 C CNN
	1    6100 6900
	1    0    0    -1  
$EndComp
Text Label 6000 6200 0    60   ~ 0
RAM_VCC
Wire Wire Line
	3700 900  4100 900 
Wire Wire Line
	3700 1000 4100 1000
Wire Wire Line
	3700 1100 4100 1100
Wire Wire Line
	3700 1200 4100 1200
Wire Wire Line
	3700 1300 4100 1300
Wire Wire Line
	3700 1400 4100 1400
Wire Wire Line
	3700 1500 4100 1500
Wire Wire Line
	3700 1600 4100 1600
Wire Wire Line
	4900 900  4500 900 
Wire Wire Line
	4900 1000 4500 1000
Wire Wire Line
	4900 1100 4500 1100
Wire Wire Line
	4900 1200 4500 1200
Wire Wire Line
	4900 1300 4500 1300
Wire Wire Line
	4900 1400 4500 1400
Wire Wire Line
	4900 1500 4500 1500
Wire Wire Line
	4900 1600 4500 1600
Wire Wire Line
	5900 900  6300 900 
Wire Wire Line
	5900 1000 6300 1000
Wire Wire Line
	5900 1100 6300 1100
Wire Wire Line
	5900 1200 6300 1200
Wire Wire Line
	5900 1300 6300 1300
Wire Wire Line
	5900 1400 6300 1400
Wire Wire Line
	5900 1500 6300 1500
Wire Wire Line
	5900 1600 6300 1600
Wire Wire Line
	4800 5000 4400 5000
Wire Wire Line
	4800 5100 4400 5100
Wire Wire Line
	4800 5200 4400 5200
Wire Wire Line
	4800 5300 4400 5300
Wire Wire Line
	4800 5400 4400 5400
Wire Wire Line
	4800 5500 4400 5500
Wire Wire Line
	4800 5600 4400 5600
Wire Wire Line
	4800 5700 4400 5700
Wire Wire Line
	4800 5800 4400 5800
Wire Wire Line
	4800 5900 4400 5900
Wire Wire Line
	4800 6000 4400 6000
Wire Wire Line
	4800 6100 4400 6100
Wire Wire Line
	4800 6200 4400 6200
Wire Wire Line
	4800 6300 4400 6300
Wire Wire Line
	4800 6400 4400 6400
Wire Wire Line
	6000 5000 6400 5000
Wire Wire Line
	6000 5100 6400 5100
Wire Wire Line
	6000 5200 6400 5200
Wire Wire Line
	6000 5300 6400 5300
Wire Wire Line
	6000 5400 6400 5400
Wire Wire Line
	6000 5500 6400 5500
Wire Wire Line
	6000 5600 6400 5600
Wire Wire Line
	6000 5700 6400 5700
Wire Wire Line
	1000 5000 600  5000
Wire Wire Line
	1000 5100 600  5100
Wire Wire Line
	1000 5200 600  5200
Wire Wire Line
	1000 5300 600  5300
Wire Wire Line
	1000 5400 600  5400
Wire Wire Line
	1000 5500 600  5500
Wire Wire Line
	1000 5600 600  5600
Wire Wire Line
	1000 5700 600  5700
Wire Wire Line
	1000 5800 600  5800
Wire Wire Line
	1000 5900 600  5900
Wire Wire Line
	1000 6000 600  6000
Wire Wire Line
	1000 6100 600  6100
Wire Wire Line
	1000 6200 600  6200
Wire Wire Line
	1000 6300 600  6300
Wire Wire Line
	2200 5000 2600 5000
Wire Wire Line
	2200 5100 2600 5100
Wire Wire Line
	2200 5200 2600 5200
Wire Wire Line
	2200 5300 2600 5300
Wire Wire Line
	2200 5400 2600 5400
Wire Wire Line
	2200 5500 2600 5500
Wire Wire Line
	2200 5600 2600 5600
Wire Wire Line
	2200 5700 2600 5700
Wire Wire Line
	600  7900 1000 7900
Wire Wire Line
	600  8000 1000 8000
Wire Wire Line
	600  8100 1000 8100
Wire Wire Line
	600  8200 1000 8200
Wire Wire Line
	600  8300 1000 8300
Wire Wire Line
	600  8400 1000 8400
Wire Wire Line
	600  8500 1000 8500
Wire Wire Line
	600  8600 1000 8600
Wire Wire Line
	1000 8800 600  8800
Wire Wire Line
	1000 9000 600  9000
Wire Wire Line
	1000 9100 600  9100
Wire Wire Line
	1000 9200 600  9200
Wire Wire Line
	1000 9400 600  9400
Wire Wire Line
	1000 9600 600  9600
Wire Wire Line
	3700 4100 4100 4100
Wire Wire Line
	3700 3700 4100 3700
Wire Wire Line
	2200 8700 2300 8700
Wire Wire Line
	2200 9100 2300 9100
Wire Wire Line
	2200 8400 2400 8400
Wire Wire Line
	2200 8900 3400 8900
Wire Wire Line
	2200 8100 2600 8100
Wire Wire Line
	2200 8200 2500 8200
Wire Wire Line
	2200 7900 2300 7900
Wire Wire Line
	2300 7900 2300 8000
Wire Wire Line
	2300 8000 2200 8000
Wire Wire Line
	1000 6800 600  6800
Wire Wire Line
	1000 6900 600  6900
Wire Wire Line
	4800 6800 4400 6800
Wire Wire Line
	4400 6700 4800 6700
Wire Wire Line
	1000 6500 600  6500
Wire Wire Line
	1000 6600 600  6600
Wire Wire Line
	2200 9000 2700 9000
Wire Wire Line
	3700 2600 4100 2600
Wire Wire Line
	4900 1800 4500 1800
Wire Wire Line
	4500 1900 4900 1900
Wire Wire Line
	3700 3200 4100 3200
Wire Wire Line
	3700 3300 4100 3300
Wire Wire Line
	3700 3000 4100 3000
Wire Wire Line
	3700 1700 4100 1700
Wire Wire Line
	3700 1800 4100 1800
Wire Wire Line
	3700 1900 4100 1900
Wire Wire Line
	3700 2000 4100 2000
Wire Wire Line
	3700 2100 4100 2100
Wire Wire Line
	3700 2200 4100 2200
Wire Wire Line
	3700 2300 4100 2300
Wire Wire Line
	3700 2400 4100 2400
Wire Wire Line
	2300 1300 1900 1300
Wire Wire Line
	3700 3600 4100 3600
Wire Wire Line
	2300 1100 1900 1100
Wire Wire Line
	2300 900  1900 900 
Wire Wire Line
	1500 2500 2300 2500
Wire Wire Line
	3700 3900 4100 3900
Wire Wire Line
	1900 2700 2300 2700
Wire Wire Line
	1500 2500 1500 2900
Wire Wire Line
	1500 2700 1400 2700
Connection ~ 1500 2700
Wire Wire Line
	1000 2400 1000 2900
Wire Wire Line
	1100 2700 1000 2700
Connection ~ 1000 2700
Wire Wire Line
	700  1300 700  1400
Wire Wire Line
	2300 1900 1900 1900
Wire Wire Line
	2300 1700 1900 1700
Wire Wire Line
	2300 1600 1900 1600
Wire Wire Line
	2300 1500 1900 1500
Wire Wire Line
	7100 2600 7100 3000
Wire Wire Line
	7400 1200 7400 1600
Wire Wire Line
	7200 2600 7200 3000
Wire Wire Line
	7300 2600 7300 3000
Wire Wire Line
	7500 1200 7500 1600
Wire Wire Line
	3100 5000 3500 5000
Wire Wire Line
	3500 5100 3100 5100
Wire Wire Line
	3100 5200 3500 5200
Wire Wire Line
	3500 5500 3100 5500
Wire Wire Line
	3500 5600 3100 5600
Wire Wire Line
	3500 5700 3100 5700
Wire Wire Line
	6900 6400 6900 6300
Wire Wire Line
	7200 6400 7200 6300
Connection ~ 7200 6400
Wire Wire Line
	7200 5900 7200 6000
Connection ~ 7200 5900
Wire Wire Line
	7500 5900 7500 6000
Connection ~ 7500 5900
Wire Wire Line
	7500 6400 7500 6300
Connection ~ 7500 6400
Wire Wire Line
	7800 6300 7800 7200
Connection ~ 7800 6400
Wire Wire Line
	7200 7100 7200 7000
Connection ~ 7200 7100
Wire Wire Line
	7200 6600 7200 6700
Connection ~ 7200 6600
Wire Wire Line
	7100 5100 7000 5100
Wire Wire Line
	7100 4900 7100 5100
Connection ~ 6900 5900
Wire Wire Line
	7000 5200 7100 5200
Wire Wire Line
	7100 5200 7100 5500
Wire Wire Line
	7000 5300 7100 5300
Connection ~ 7100 5300
Wire Wire Line
	5700 4200 5600 4200
Wire Wire Line
	5600 3700 6000 3700
Wire Wire Line
	5100 3700 4700 3700
Wire Wire Line
	5600 3800 6000 3800
Wire Wire Line
	5100 3800 4700 3800
Wire Wire Line
	5600 3900 6000 3900
Wire Wire Line
	5100 3900 4700 3900
Wire Wire Line
	5600 4000 6000 4000
Wire Wire Line
	5100 4000 4700 4000
Wire Wire Line
	5600 2700 6000 2700
Wire Wire Line
	5100 2700 4700 2700
Wire Wire Line
	5600 2800 6000 2800
Wire Wire Line
	5100 2800 4700 2800
Wire Wire Line
	5600 2900 6000 2900
Wire Wire Line
	5100 2900 4700 2900
Wire Wire Line
	5600 3000 6000 3000
Wire Wire Line
	5100 3000 4700 3000
Wire Wire Line
	5100 3500 4700 3500
Wire Wire Line
	5100 3600 4700 3600
Wire Wire Line
	5600 2500 6000 2500
Wire Wire Line
	5600 3100 6000 3100
Wire Wire Line
	5100 3100 4700 3100
Wire Wire Line
	5600 3200 6000 3200
Wire Wire Line
	5100 3200 4700 3200
Wire Wire Line
	5600 3300 6000 3300
Wire Wire Line
	5100 3300 4700 3300
Wire Wire Line
	5600 3400 6000 3400
Wire Wire Line
	5100 2600 4700 2600
Wire Wire Line
	4500 4100 5100 4100
Wire Wire Line
	5600 3600 6000 3600
Wire Wire Line
	5600 2400 6000 2400
Wire Wire Line
	5600 3500 6000 3500
Wire Wire Line
	5600 2600 6000 2600
Wire Wire Line
	5100 2400 4700 2400
Wire Wire Line
	5100 2500 4700 2500
Wire Wire Line
	5100 2300 4700 2300
Wire Wire Line
	7800 5400 7800 5300
Wire Wire Line
	7000 3800 7000 4100
Wire Wire Line
	7000 3800 7100 3800
Wire Wire Line
	6800 3900 7100 3900
Connection ~ 7000 3900
Wire Wire Line
	7100 4000 7000 4000
Connection ~ 7000 4000
Wire Wire Line
	7000 4100 7100 4100
Wire Wire Line
	7400 2600 7400 3000
Wire Wire Line
	7000 1200 7000 1300
Wire Wire Line
	7000 1300 6700 1300
Wire Wire Line
	6700 1300 6700 1200
Wire Wire Line
	7100 1200 7100 1600
Wire Wire Line
	7200 1200 7200 1600
Wire Wire Line
	7300 1200 7300 1600
Wire Wire Line
	7000 2600 7000 2700
Wire Wire Line
	7500 2600 7500 3000
Wire Wire Line
	850  1700 1000 1700
Wire Wire Line
	1000 1700 1000 2100
Wire Wire Line
	5100 3400 4700 3400
Wire Wire Line
	5600 2300 6000 2300
Wire Wire Line
	5600 4100 6200 4100
Wire Wire Line
	2300 9600 2900 9600
Wire Wire Line
	2900 9500 2500 9500
Wire Wire Line
	2900 9700 2500 9700
Wire Wire Line
	1000 3200 1000 3300
Wire Wire Line
	700  2000 700  2100
Wire Wire Line
	1500 3200 1500 3300
Wire Wire Line
	1000 2400 2300 2400
Wire Wire Line
	1100 1300 1700 1300
Wire Wire Line
	1500 2000 1500 2100
Wire Wire Line
	1200 1200 1200 1300
Connection ~ 1500 1300
Wire Wire Line
	1500 1200 1500 1700
Wire Wire Line
	1500 900  1500 800 
Connection ~ 1200 1300
Wire Wire Line
	1200 900  1200 800 
Wire Notes Line
	7900 4600 600  4600
Wire Wire Line
	7500 7100 7500 7000
Connection ~ 7500 7100
Wire Wire Line
	7500 6600 7500 6700
Connection ~ 7100 5400
Connection ~ 7100 5000
Wire Wire Line
	7700 5000 7800 5000
Wire Wire Line
	7800 5000 7800 5100
Wire Wire Line
	6900 7100 6900 7000
Wire Wire Line
	6900 6600 6900 6700
Connection ~ 6900 6600
Wire Wire Line
	5100 4200 5000 4200
Wire Wire Line
	5000 4200 5000 4300
Wire Wire Line
	5700 4200 5700 4300
Wire Wire Line
	6200 4100 6200 4000
Wire Wire Line
	4500 4100 4500 4000
Wire Wire Line
	6500 7900 6100 7900
Wire Wire Line
	6500 8000 6100 8000
Wire Wire Line
	6500 8100 6100 8100
Wire Wire Line
	6500 8200 6100 8200
Wire Wire Line
	6500 8300 6100 8300
Wire Wire Line
	6500 8400 6100 8400
Wire Wire Line
	6500 8500 6100 8500
Wire Wire Line
	6500 8600 6100 8600
Wire Wire Line
	6500 8700 6100 8700
Wire Wire Line
	6500 8800 6300 8800
Wire Wire Line
	7500 7900 7900 7900
Wire Wire Line
	7500 8000 7900 8000
Wire Wire Line
	7500 8100 7900 8100
Wire Wire Line
	7500 8200 7900 8200
Wire Wire Line
	7500 8300 7900 8300
Wire Wire Line
	7500 8400 7900 8400
Wire Wire Line
	7500 8500 7900 8500
Wire Wire Line
	7500 8600 7900 8600
Wire Wire Line
	4500 1900 4500 2000
Wire Wire Line
	6300 8800 6300 8900
Wire Wire Line
	6900 5900 6900 6000
Wire Wire Line
	7100 5400 7800 5400
Wire Wire Line
	7100 5000 7400 5000
Wire Wire Line
	1300 3700 900  3700
Wire Wire Line
	900  3800 1300 3800
Wire Wire Line
	900  3900 1000 3900
Wire Wire Line
	1000 3900 1000 4000
Wire Wire Line
	7300 5000 7300 4900
Connection ~ 7300 5000
Wire Wire Line
	7300 5400 7300 5400
Connection ~ 7300 5400
Wire Wire Line
	7000 2700 6800 2700
Wire Wire Line
	6800 2700 6800 2800
Wire Wire Line
	6800 3900 6800 4000
Wire Wire Line
	4400 8600 5100 8600
Wire Wire Line
	4400 8500 4700 8500
Wire Wire Line
	4700 8500 4700 8700
Wire Wire Line
	4700 8700 5100 8700
Wire Wire Line
	4400 8800 4800 8800
Wire Wire Line
	4800 8800 4800 8500
Wire Wire Line
	4800 8500 5100 8500
Wire Wire Line
	4400 8900 4900 8900
Wire Wire Line
	4900 8900 4900 8800
Wire Wire Line
	4900 8800 5100 8800
Wire Wire Line
	4400 8200 4500 8200
Wire Wire Line
	4400 7900 4500 7900
Wire Wire Line
	4800 8200 5100 8200
Wire Wire Line
	4900 8300 4900 8200
Connection ~ 4900 8200
Wire Wire Line
	4800 7900 4900 7900
Wire Wire Line
	4900 7900 4900 7800
Wire Wire Line
	3400 7900 3300 7900
Wire Wire Line
	3300 7900 3300 7800
Wire Wire Line
	3300 7800 3200 7800
Wire Wire Line
	3400 8000 2800 8000
Wire Wire Line
	2800 8000 2800 7800
Wire Wire Line
	2800 7800 2900 7800
Wire Wire Line
	3400 8200 3200 8200
Wire Wire Line
	3400 8300 3300 8300
Wire Wire Line
	3300 8300 3300 8400
Wire Wire Line
	3300 8400 2800 8400
Wire Wire Line
	2800 8400 2800 8200
Wire Wire Line
	2800 8200 2900 8200
Wire Notes Line
	600  7400 7900 7400
Wire Notes Line
	5900 9100 5900 7500
Wire Notes Line
	7750 3300 6650 3300
Wire Wire Line
	3400 8500 2500 8500
Wire Wire Line
	3400 8600 2400 8600
Wire Wire Line
	3400 8800 2600 8800
Wire Wire Line
	2400 8600 2400 8400
Wire Wire Line
	2500 8500 2500 8200
Wire Wire Line
	2600 8800 2600 8100
Wire Wire Line
	700  1300 800  1300
Wire Wire Line
	2300 2100 1700 2100
Wire Wire Line
	1700 2100 1700 1300
Wire Wire Line
	2700 6700 2300 6700
Wire Wire Line
	3900 6600 4800 6600
Wire Wire Line
	2300 8700 2300 9600
Connection ~ 2300 9100
Wire Wire Line
	3900 6700 4300 6700
Wire Wire Line
	4300 6700 4300 7100
Wire Wire Line
	4300 7100 6400 7100
Wire Wire Line
	6400 7100 6400 6200
Wire Wire Line
	6400 6200 6000 6200
Wire Wire Line
	6100 6200 6100 6300
Connection ~ 6100 6200
Wire Wire Line
	6000 6800 6100 6800
Wire Wire Line
	6100 6600 6100 6900
Connection ~ 6100 6800
Wire Wire Line
	3900 7000 4200 7000
Wire Wire Line
	4200 6200 4200 7200
Wire Wire Line
	2700 6900 2600 6900
Wire Wire Line
	2600 6900 2600 7200
$Comp
L GND #PWR025
U 1 1 58B1E64B
P 4200 7200
F 0 "#PWR025" H 4200 6950 50  0001 C CNN
F 1 "GND" H 4200 7050 50  0000 C CNN
F 2 "" H 4200 7200 50  0000 C CNN
F 3 "" H 4200 7200 50  0000 C CNN
	1    4200 7200
	1    0    0    -1  
$EndComp
$Comp
L GND #PWR026
U 1 1 58B1E6B7
P 2600 7200
F 0 "#PWR026" H 2600 6950 50  0001 C CNN
F 1 "GND" H 2600 7050 50  0000 C CNN
F 2 "" H 2600 7200 50  0000 C CNN
F 3 "" H 2600 7200 50  0000 C CNN
	1    2600 7200
	1    0    0    -1  
$EndComp
Wire Notes Line
	6600 4700 6600 7300
$Comp
L CP1 C7
U 1 1 58B2B999
P 7200 6850
F 0 "C7" H 7225 6950 50  0000 L CNN
F 1 "0.1uF" H 7225 6750 50  0000 L CNN
F 2 "my_components:Cap_Pol_508_3" H 7200 6850 50  0001 C CNN
F 3 "" H 7200 6850 50  0000 C CNN
	1    7200 6850
	1    0    0    -1  
$EndComp
Wire Wire Line
	6700 5900 7800 5900
Wire Wire Line
	6900 6400 7800 6400
Wire Wire Line
	6700 6600 7500 6600
Wire Wire Line
	6900 7100 7800 7100
Wire Wire Line
	6700 5800 6700 6600
Connection ~ 6700 5900
$Comp
L VCC #PWR027
U 1 1 58B2ED49
P 6700 5800
F 0 "#PWR027" H 6700 5650 50  0001 C CNN
F 1 "VCC" H 6700 5950 50  0000 C CNN
F 2 "" H 6700 5800 50  0000 C CNN
F 3 "" H 6700 5800 50  0000 C CNN
	1    6700 5800
	1    0    0    -1  
$EndComp
Wire Wire Line
	7800 5900 7800 6000
$Comp
L GND #PWR028
U 1 1 58B2F259
P 7800 7200
F 0 "#PWR028" H 7800 6950 50  0001 C CNN
F 1 "GND" H 7800 7050 50  0000 C CNN
F 2 "" H 7800 7200 50  0000 C CNN
F 3 "" H 7800 7200 50  0000 C CNN
	1    7800 7200
	1    0    0    -1  
$EndComp
Connection ~ 7800 7100
Wire Wire Line
	4100 6900 3900 6900
$Comp
L PWR_FLAG #FLG029
U 1 1 58B44D1A
P 4100 6000
F 0 "#FLG029" H 4100 6095 50  0001 C CNN
F 1 "PWR_FLAG" H 4100 6180 50  0000 C CNN
F 2 "" H 4100 6000 50  0000 C CNN
F 3 "" H 4100 6000 50  0000 C CNN
	1    4100 6000
	1    0    0    -1  
$EndComp
$Comp
L CONN_01X02 P5
U 1 1 58AF63C8
P 3800 6150
F 0 "P5" H 3800 6300 50  0000 C CNN
F 1 "VBAT" V 3900 6150 50  0000 C CNN
F 2 "my_components:Conn_Friction_Lock_2P_2.54mm" H 3800 6150 50  0001 C CNN
F 3 "" H 3800 6150 50  0000 C CNN
	1    3800 6150
	-1   0    0    -1  
$EndComp
Wire Wire Line
	4000 6100 4100 6100
Connection ~ 4100 6100
Wire Wire Line
	4000 6200 4200 6200
Connection ~ 4200 7000
Text Label 3900 6900 0    60   ~ 0
VBAT
Wire Wire Line
	4100 6000 4100 6900
Text Notes 2150 10450 0    60   ~ 0
JP3    UART Clock\n---   ----------------\n1-2 - 307.2 kHz / 16 = 19200\n1-2 - 307.2 kHz / 64 = 2400\n2-3 - 153.6 kHz / 16 = 9600\n2-3 - 153.6 kHz / 64 = 1200
Text Notes 1300 10450 0    60   ~ 0
Pin 1\n----\nVCC\nVCC\nA14\n~WE
Text Notes 1650 10450 0    60   ~ 0
Pin 27\n----\nVCC\nA14\n~WE\nA14
Text Label 7300 1600 1    60   ~ 0
~SWAP_MEM
Wire Notes Line
	2050 9900 2050 10450
$EndSCHEMATC
